name,vn_kv,type,zone,in_service,net_id
HV Busbar,110.0,b,,True,network_00
HV Busbar 2,110.0,b,,True,network_00
HV Transformer Bus,110.0,n,,True,network_00
MV Transformer Bus,20.0,n,,True,network_00
MV Main Bus,20.0,b,,True,network_00
MV Bus 1,20.0,b,,True,network_00
MV Bus 2,20.0,b,,True,network_00
